\relax 
\@writefile{lol}{\contentsline {lstlisting}{\numberline {1}An example}{1}{}\protected@file@percent }
\@writefile{lol}{\contentsline {lstlisting}{\numberline {2}cli.adb: Show Command Line Argument}{1}{}\protected@file@percent }
\@writefile{lol}{\contentsline {lstlisting}{\numberline {3}cli.adb: GetNext}{1}{}\protected@file@percent }
\gdef \@abspage@last{1}
